…
The table contains a numeric Id for the different users, a numeric double value for the sleep records and the time of the measure with char format.


```r
sleep%>%
   group_by(Id) %>%
   summarize(max_asleep = max(TotalMinutesAsleep),min_asleep = min(TotalMinutesAsleep), mean_asleep = mean(TotalMinutesAsleep))
```

```
## # A tibble: 24 x 4
##            Id max_asleep min_asleep mean_asleep
##         <dbl>      <dbl>      <dbl>       <dbl>
##  1 1503960366        700        245        360.
##  2 1644430081        796        119        294 
##  3 1844505072        722        590        652 
##  4 1927972279        750        166        417 
##  5 2026352035        573        357        506.
##  6 2320127002         61         61         61 
##  7 2347167796        556        374        447.
##  8 3977333714        424        152        294.
##  9 4020332650        501         77        349.
## 10 4319703577        692         59        477.
## # ... with 14 more rows
```
…
```r
activity  %>%
  group_by(Id) %>%
   summarize(max_steps = max(TotalSteps),min_steps = min(TotalSteps), mean_steps = mean(TotalSteps))
```

```
## # A tibble: 33 x 4
##            Id max_steps min_steps mean_steps
##         <dbl>     <dbl>     <dbl>      <dbl>
##  1 1503960366     18134         0     12117.
##  2 1624580081     36019      1510      5744.
##  3 1644430081     18213      1223      7283.
##  4 1844505072      8054         0      2580.
##  5 1927972279      3790         0       916.
##  6 2022484408     18387      3292     11371.
##  7 2026352035     12357       254      5567.
##  8 2320127002     10725       772      4717.
##  9 2347167796     22244        42      9520.
## 10 2873212765      9685      2524      7556.
## # ... with 23 more rows
```
…
